{
  "name": "JumpStartMilestones",
  "version": "0.2.0",
  "title": "JumpStartMilestones",
  "author": "DrBeco",
  "factorio_version": "1.1",
  "dependencies": ["base >= 1.1", "Milestones >=1.3.20"],
  "description": "Adds a preset to Milestones mod to track the minimum necessary for a good jumpstart base"
}

